Tokyo   17415
Bangkok 12220
Pacific Time (US & Canada)      10489
Irkutsk 9581
Eastern Time (US & Canada)      9281
Hawaii  8562
Brasilia        8390
Central Time (US & Canada)      8228
Athens  6340
Beijing 6242
Amsterdam       5774
Jakarta 5655
Quito   5208
Atlantic Time (Canada)  4748
Baghdad 4132
London  4072
Kuala Lumpur    3610
Alaska  3237
Santiago        2835
Greenland       2821
Arizona 2499
Madrid  1762
Mountain Time (US & Canada)     1637
Buenos Aires    1617
Singapore       1454
Osaka   1392
Casablanca      1299
Abu Dhabi       1284
Paris   1269
Seoul   1129
Caracas 1022
Mid-Atlantic    1001
Istanbul        820

