Hash tags by hour


8333     04      14
13605    05      14
12756    06      14
13313    07      14
13285    08      14
14274    09      14
15520    10      14
17062    11      14
18814    12      14
20678    13      14
22157    14      14
22865    15      14
21831    16      14
20953    17      14
20563    18      14
20370    19      14
20010    20      14
19502    21      14
18360    22      14
18263    23      14
17621    00      15
17572    01      15
17452    02      15
17320    03      15
16597    04      15
6127     05      15



