Place Tweets Count
Bangkok 1653
Pacific Time (US & Canada)      1349
Jakarta 889
Beijing 717
Alaska  382
Arizona 224
Kuala Lumpur    177
Brasilia        135
Hawaii  111
Singapore       97
Hong Kong       96
Tokyo   69
Santiago        61
Greenland       52
Amsterdam       52
Central Time (US & Canada)      49
Athens  44
Irkutsk 41
Baghdad 38
Quito   38
Eastern Time (US & Canada)      36
London  34
Caracas 30
Taipei  28
International Date Line West    26
Mountain Time (US & Canada)     25
Atlantic Time (Canada)  24
Seoul   23
Abu Dhabi       22
Mid-Atlantic    19
Rome    15
Mexico City     14
Buenos Aires    13
Madrid  13
Casablanca      12
Central America 11
Paris   11
